{
  "name": "Category",
  "alias": "category",
  "description": "Managing categories.",
  "keywords": [
  ],
  "version": "2.0.0",
  "active": 1,
  "order": 1,
  "providers": [
    "Modules\\Category\\Providers\\RouteServiceProvider",
    "Modules\\Category\\Providers\\CategoryServiceProvider",
    "Modules\\Category\\Providers\\EventServiceProvider",
    "Nwidart\\Menus\\MenusServiceProvider"
  ],
  "aliases": {
    "Category": "Nwidart\\Categories\\Facades\\Category",
    "CategoryDirective": "Modules\\Category\\Blade\\Facades\\CategoryDirective"
  },
  "files": []
}
